<?xml version="1.0" encoding="UTF-8" standalone="no"?>
<!-- Generator: Adobe Illustrator 18.0.0, SVG Export Plug-In . SVG Version: 6.00 Build 0)  -->

<svg
   xmlns:dc="http://purl.org/dc/elements/1.1/"
   xmlns:cc="http://creativecommons.org/ns#"
   xmlns:rdf="http://www.w3.org/1999/02/22-rdf-syntax-ns#"
   xmlns:svg="http://www.w3.org/2000/svg"
   xmlns="http://www.w3.org/2000/svg"
   xmlns:sodipodi="http://sodipodi.sourceforge.net/DTD/sodipodi-0.dtd"
   xmlns:inkscape="http://www.inkscape.org/namespaces/inkscape"
   version="1.1"
   id="Calque_1"
   x="0px"
   y="0px"
   viewBox="0 0 595.3 841.9"
   enable-background="new 0 0 595.3 841.9"
   xml:space="preserve"
   sodipodi:docname="regletteverte_laser.svg"
   inkscape:version="0.92.3 (2405546, 2018-03-11)"><metadata
   id="metadata23"><rdf:RDF><cc:Work
       rdf:about=""><dc:format>image/svg+xml</dc:format><dc:type
         rdf:resource="http://purl.org/dc/dcmitype/StillImage" /></cc:Work></rdf:RDF></metadata><defs
   id="defs21" /><sodipodi:namedview
   pagecolor="#ffffff"
   bordercolor="#666666"
   borderopacity="1"
   objecttolerance="10"
   gridtolerance="10"
   guidetolerance="10"
   inkscape:pageopacity="0"
   inkscape:pageshadow="2"
   inkscape:window-width="1600"
   inkscape:window-height="837"
   id="namedview19"
   showgrid="false"
   inkscape:zoom="0.56063664"
   inkscape:cx="318.96346"
   inkscape:cy="370.70132"
   inkscape:window-x="-8"
   inkscape:window-y="-8"
   inkscape:window-maximized="1"
   inkscape:current-layer="Calque_1" />
<polygon
   stroke-miterlimit="10"
   points="213.8,528.1 213.8,177.2 242.3,153.2 256.4,153.2 284.8,181.6 284.8,528.1 256.4,556.4 242.3,556.4 "
   id="polygon2"
   transform="matrix(1.3115098,0,0,1.3115098,-42.597346,-51.021679)"
   style="fill:none;stroke:#f31f2c;stroke-width:0.25400001;stroke-linecap:round;stroke-miterlimit:10" />
<text
   stroke-miterlimit="10"
   font-size="96.192"
   id="text4"
   x="253.8181"
   y="307.2287"
   style="font-size:101.84832001px;font-family:CourierNewPSMT;fill:#000000;fill-opacity:1;stroke:none;stroke-width:0.2689358;stroke-miterlimit:10">2</text>


<text
   stroke-miterlimit="10"
   font-size="96.192"
   id="text6"
   style="font-size:99.81266785px;font-family:CourierNewPSMT;fill:#000000;fill-opacity:1;stroke:none;stroke-width:0.26356056;stroke-miterlimit:10"
   x="252.32254"
   y="427.97665">3</text>


<text
   stroke-miterlimit="10"
   font-size="96.192"
   id="text8"
   style="font-size:103.96873474px;font-family:CourierNewPSMT;fill:#000000;fill-opacity:1;stroke:none;stroke-width:0.27453488;stroke-miterlimit:10"
   x="252.67273"
   y="555.21393">8</text>


<rect
   x="237.80345"
   y="204.32927"
   width="93.117195"
   height="5.639492"
   id="rect10"
   style="fill:#010101;stroke-width:1.31150973" />
<rect
   x="237.80345"
   y="326.69312"
   width="93.117195"
   height="5.639492"
   id="rect12"
   style="fill:#010101;stroke-width:1.31150973" />
<rect
   x="237.80345"
   y="451.1554"
   width="93.117195"
   height="5.639492"
   id="rect14"
   style="fill:#010101;stroke-width:1.31150973" />
<rect
   x="237.80345"
   y="574.17505"
   width="93.117195"
   height="5.5083408"
   id="rect16"
   style="fill:#010101;stroke-width:1.31150973" />
</svg>