<?xml version="1.0" encoding="UTF-8" standalone="no"?>
<!-- Generator: Adobe Illustrator 21.1.0, SVG Export Plug-In . SVG Version: 6.00 Build 0)  -->

<svg
   xmlns:dc="http://purl.org/dc/elements/1.1/"
   xmlns:cc="http://creativecommons.org/ns#"
   xmlns:rdf="http://www.w3.org/1999/02/22-rdf-syntax-ns#"
   xmlns:svg="http://www.w3.org/2000/svg"
   xmlns="http://www.w3.org/2000/svg"
   xmlns:sodipodi="http://sodipodi.sourceforge.net/DTD/sodipodi-0.dtd"
   xmlns:inkscape="http://www.inkscape.org/namespaces/inkscape"
   version="1.1"
   x="0px"
   y="0px"
   viewBox="0 0 1700.8 1133.9"
   style="enable-background:new 0 0 1700.8 1133.9;"
   xml:space="preserve"
   id="svg749"
   sodipodi:docname="calque 17 .svg"
   inkscape:version="0.92.3 (2405546, 2018-03-11)"><metadata
   id="metadata755"><rdf:RDF><cc:Work
       rdf:about=""><dc:format>image/svg+xml</dc:format><dc:type
         rdf:resource="http://purl.org/dc/dcmitype/StillImage" /></cc:Work></rdf:RDF></metadata><defs
   id="defs753" /><sodipodi:namedview
   pagecolor="#ffffff"
   bordercolor="#666666"
   borderopacity="1"
   objecttolerance="10"
   gridtolerance="10"
   guidetolerance="10"
   inkscape:pageopacity="0"
   inkscape:pageshadow="2"
   inkscape:window-width="1600"
   inkscape:window-height="837"
   id="namedview751"
   showgrid="false"
   inkscape:zoom="0.294342"
   inkscape:cx="744.98681"
   inkscape:cy="442.1363"
   inkscape:window-x="-8"
   inkscape:window-y="-8"
   inkscape:window-maximized="1"
   inkscape:current-layer="svg749" />
<style
   type="text/css"
   id="style2">
	.st0{fill:none;stroke:#FF0000;stroke-width:1.000000e-02;stroke-miterlimit:10;}
	.st1{fill:none;stroke:#0000FF;stroke-miterlimit:10;}
</style>
<g
   id="Calque_17"
   style="stroke:#ff0000;stroke-opacity:1">
	<g
   id="LINE_4857_"
   style="stroke:#ff0000;stroke-opacity:1">
		<line
   class="st0"
   x1="439.39999"
   y1="127.6"
   x2="453.5"
   y2="127.6"
   id="line4"
   style="stroke:#ff0000;stroke-opacity:1" />
	</g>
	<g
   id="LINE_4856_"
   style="stroke:#ff0000;stroke-opacity:1">
		<line
   class="st0"
   x1="240.89999"
   y1="226.5"
   x2="240.89999"
   y2="240.7"
   id="line7"
   style="stroke:#ff0000;stroke-opacity:1" />
	</g>
	<g
   id="LINE_4855_"
   style="stroke:#ff0000;stroke-opacity:1">
		<line
   class="st0"
   x1="411"
   y1="305.89999"
   x2="354.29999"
   y2="305.89999"
   id="line10"
   style="stroke:#ff0000;stroke-opacity:1" />
	</g>
	<g
   id="LINE_4854_"
   style="stroke:#ff0000;stroke-opacity:1">
		<line
   class="st0"
   x1="354.29999"
   y1="305.89999"
   x2="354.29999"
   y2="320.10001"
   id="line13"
   style="stroke:#ff0000;stroke-opacity:1" />
	</g>
	<g
   id="LINE_4853_"
   style="stroke:#ff0000;stroke-opacity:1">
		<line
   class="st0"
   x1="411"
   y1="240.7"
   x2="411"
   y2="226.5"
   id="line16"
   style="stroke:#ff0000;stroke-opacity:1" />
	</g>
	<g
   id="LINE_4852_"
   style="stroke:#ff0000;stroke-opacity:1">
		<line
   class="st0"
   x1="411"
   y1="226.5"
   x2="354.29999"
   y2="226.5"
   id="line19"
   style="stroke:#ff0000;stroke-opacity:1" />
	</g>
	<g
   id="LINE_4851_"
   style="stroke:#ff0000;stroke-opacity:1">
		<line
   class="st0"
   x1="240.89999"
   y1="240.7"
   x2="297.60001"
   y2="240.7"
   id="line22"
   style="stroke:#ff0000;stroke-opacity:1" />
	</g>
	<g
   id="LINE_4850_"
   style="stroke:#ff0000;stroke-opacity:1">
		<line
   class="st0"
   x1="262.20001"
   y1="14.2"
   x2="262.20001"
   y2="0"
   id="line25"
   style="stroke:#ff0000;stroke-opacity:1" />
	</g>
	<g
   id="LINE_4849_"
   style="stroke:#ff0000;stroke-opacity:1">
		<line
   class="st0"
   x1="297.60001"
   y1="240.7"
   x2="297.60001"
   y2="226.5"
   id="line28"
   style="stroke:#ff0000;stroke-opacity:1" />
	</g>
	<g
   id="LINE_4848_"
   style="stroke:#ff0000;stroke-opacity:1">
		<line
   class="st0"
   x1="375.60001"
   y1="1091.3"
   x2="375.60001"
   y2="1105.5"
   id="line31"
   style="stroke:#ff0000;stroke-opacity:1" />
	</g>
	<g
   id="LINE_4847_"
   style="stroke:#ff0000;stroke-opacity:1">
		<line
   class="st0"
   x1="148.8"
   y1="0"
   x2="262.20001"
   y2="0"
   id="line34"
   style="stroke:#ff0000;stroke-opacity:1" />
	</g>
	<g
   id="LINE_4846_"
   style="stroke:#ff0000;stroke-opacity:1">
		<line
   class="st0"
   x1="439.39999"
   y1="297.60001"
   x2="453.5"
   y2="297.60001"
   id="line37"
   style="stroke:#ff0000;stroke-opacity:1" />
	</g>
	<g
   id="LINE_4845_"
   style="stroke:#ff0000;stroke-opacity:1">
		<line
   class="st0"
   x1="453.5"
   y1="411"
   x2="453.5"
   y2="467.70001"
   id="line40"
   style="stroke:#ff0000;stroke-opacity:1" />
	</g>
	<g
   id="LINE_4844_"
   style="stroke:#ff0000;stroke-opacity:1">
		<line
   class="st0"
   x1="354.29999"
   y1="320.10001"
   x2="411"
   y2="320.10001"
   id="line43"
   style="stroke:#ff0000;stroke-opacity:1" />
	</g>
	<g
   id="LINE_4843_"
   style="stroke:#ff0000;stroke-opacity:1">
		<line
   class="st0"
   x1="297.60001"
   y1="226.5"
   x2="240.89999"
   y2="226.5"
   id="line46"
   style="stroke:#ff0000;stroke-opacity:1" />
	</g>
	<g
   id="LINE_4842_"
   style="stroke:#ff0000;stroke-opacity:1">
		<line
   class="st0"
   x1="92.099998"
   y1="14.2"
   x2="92.099998"
   y2="0"
   id="line49"
   style="stroke:#ff0000;stroke-opacity:1" />
	</g>
	<g
   id="LINE_4841_"
   style="stroke:#ff0000;stroke-opacity:1">
		<line
   class="st0"
   x1="35.400002"
   y1="0"
   x2="92.099998"
   y2="0"
   id="line52"
   style="stroke:#ff0000;stroke-opacity:1" />
	</g>
	<g
   id="LINE_4840_"
   style="stroke:#ff0000;stroke-opacity:1">
		<line
   class="st0"
   x1="453.5"
   y1="978"
   x2="453.5"
   y2="1034.6"
   id="line55"
   style="stroke:#ff0000;stroke-opacity:1" />
	</g>
	<g
   id="LINE_4839_"
   style="stroke:#ff0000;stroke-opacity:1">
		<line
   class="st0"
   x1="354.29999"
   y1="240.7"
   x2="411"
   y2="240.7"
   id="line58"
   style="stroke:#ff0000;stroke-opacity:1" />
	</g>
	<g
   id="LINE_4838_"
   style="stroke:#ff0000;stroke-opacity:1">
		<line
   class="st0"
   x1="375.60001"
   y1="14.2"
   x2="375.60001"
   y2="0"
   id="line61"
   style="stroke:#ff0000;stroke-opacity:1" />
	</g>
	<g
   id="LINE_4837_"
   style="stroke:#ff0000;stroke-opacity:1">
		<line
   class="st0"
   x1="439.39999"
   y1="524.40002"
   x2="453.5"
   y2="524.40002"
   id="line64"
   style="stroke:#ff0000;stroke-opacity:1" />
	</g>
	<g
   id="LINE_4836_"
   style="stroke:#ff0000;stroke-opacity:1">
		<line
   class="st0"
   x1="439.39999"
   y1="864.59998"
   x2="453.5"
   y2="864.59998"
   id="line67"
   style="stroke:#ff0000;stroke-opacity:1" />
	</g>
	<g
   id="LINE_4835_"
   style="stroke:#ff0000;stroke-opacity:1">
		<line
   class="st0"
   x1="92.099998"
   y1="14.2"
   x2="148.8"
   y2="14.2"
   id="line70"
   style="stroke:#ff0000;stroke-opacity:1" />
	</g>
	<g
   id="LINE_4834_"
   style="stroke:#ff0000;stroke-opacity:1">
		<line
   class="st0"
   x1="439.39999"
   y1="467.70001"
   x2="453.5"
   y2="467.70001"
   id="line73"
   style="stroke:#ff0000;stroke-opacity:1" />
	</g>
	<g
   id="LINE_4833_"
   style="stroke:#ff0000;stroke-opacity:1">
		<line
   class="st0"
   x1="439.39999"
   y1="1034.6"
   x2="453.5"
   y2="1034.6"
   id="line76"
   style="stroke:#ff0000;stroke-opacity:1" />
	</g>
	<g
   id="LINE_4832_"
   style="stroke:#ff0000;stroke-opacity:1">
		<line
   class="st0"
   x1="439.39999"
   y1="354.29999"
   x2="453.5"
   y2="354.29999"
   id="line79"
   style="stroke:#ff0000;stroke-opacity:1" />
	</g>
	<g
   id="LINE_4831_"
   style="stroke:#ff0000;stroke-opacity:1">
		<line
   class="st0"
   x1="240.89999"
   y1="320.10001"
   x2="297.60001"
   y2="320.10001"
   id="line82"
   style="stroke:#ff0000;stroke-opacity:1" />
	</g>
	<g
   id="LINE_4830_"
   style="stroke:#ff0000;stroke-opacity:1">
		<line
   class="st0"
   x1="14.2"
   y1="581.09998"
   x2="14.2"
   y2="637.79999"
   id="line85"
   style="stroke:#ff0000;stroke-opacity:1" />
	</g>
	<g
   id="LINE_4829_"
   style="stroke:#ff0000;stroke-opacity:1">
		<line
   class="st0"
   x1="318.89999"
   y1="14.2"
   x2="318.89999"
   y2="0"
   id="line88"
   style="stroke:#ff0000;stroke-opacity:1" />
	</g>
	<g
   id="LINE_4828_"
   style="stroke:#ff0000;stroke-opacity:1">
		<line
   class="st0"
   x1="262.20001"
   y1="14.2"
   x2="318.89999"
   y2="14.2"
   id="line91"
   style="stroke:#ff0000;stroke-opacity:1" />
	</g>
	<g
   id="LINE_4827_"
   style="stroke:#ff0000;stroke-opacity:1">
		<line
   class="st0"
   x1="14.2"
   y1="127.6"
   x2="14.2"
   y2="184.3"
   id="line94"
   style="stroke:#ff0000;stroke-opacity:1" />
	</g>
	<g
   id="LINE_4826_"
   style="stroke:#ff0000;stroke-opacity:1">
		<line
   class="st0"
   x1="148.8"
   y1="14.2"
   x2="148.8"
   y2="0"
   id="line97"
   style="stroke:#ff0000;stroke-opacity:1" />
	</g>
	<g
   id="LINE_4825_"
   style="stroke:#ff0000;stroke-opacity:1">
		<line
   class="st0"
   x1="318.89999"
   y1="0"
   x2="375.60001"
   y2="0"
   id="line100"
   style="stroke:#ff0000;stroke-opacity:1" />
	</g>
	<g
   id="LINE_4824_"
   style="stroke:#ff0000;stroke-opacity:1">
		<line
   class="st0"
   x1="14.2"
   y1="467.70001"
   x2="14.2"
   y2="524.40002"
   id="line103"
   style="stroke:#ff0000;stroke-opacity:1" />
	</g>
	<g
   id="LINE_4823_"
   style="stroke:#ff0000;stroke-opacity:1">
		<line
   class="st0"
   x1="439.39999"
   y1="14.2"
   x2="439.39999"
   y2="70.900002"
   id="line106"
   style="stroke:#ff0000;stroke-opacity:1" />
	</g>
	<g
   id="LINE_4822_"
   style="stroke:#ff0000;stroke-opacity:1">
		<line
   class="st0"
   x1="14.2"
   y1="240.89999"
   x2="14.2"
   y2="297.60001"
   id="line109"
   style="stroke:#ff0000;stroke-opacity:1" />
	</g>
	<g
   id="LINE_4821_"
   style="stroke:#ff0000;stroke-opacity:1">
		<line
   class="st0"
   x1="354.29999"
   y1="595"
   x2="354.29999"
   y2="609.20001"
   id="line112"
   style="stroke:#ff0000;stroke-opacity:1" />
	</g>
	<g
   id="LINE_4820_"
   style="stroke:#ff0000;stroke-opacity:1">
		<line
   class="st0"
   x1="297.60001"
   y1="320.10001"
   x2="297.60001"
   y2="305.89999"
   id="line115"
   style="stroke:#ff0000;stroke-opacity:1" />
	</g>
	<g
   id="LINE_4819_"
   style="stroke:#ff0000;stroke-opacity:1">
		<line
   class="st0"
   x1="411"
   y1="595"
   x2="354.29999"
   y2="595"
   id="line118"
   style="stroke:#ff0000;stroke-opacity:1" />
	</g>
	<g
   id="LINE_4818_"
   style="stroke:#ff0000;stroke-opacity:1">
		<line
   class="st0"
   x1="240.89999"
   y1="609.20001"
   x2="297.60001"
   y2="609.20001"
   id="line121"
   style="stroke:#ff0000;stroke-opacity:1" />
	</g>
	<g
   id="LINE_4817_"
   style="stroke:#ff0000;stroke-opacity:1">
		<line
   class="st0"
   x1="297.60001"
   y1="609.20001"
   x2="297.60001"
   y2="595"
   id="line124"
   style="stroke:#ff0000;stroke-opacity:1" />
	</g>
	<g
   id="LINE_4816_"
   style="stroke:#ff0000;stroke-opacity:1">
		<line
   class="st0"
   x1="439.39999"
   y1="411"
   x2="453.5"
   y2="411"
   id="line127"
   style="stroke:#ff0000;stroke-opacity:1" />
	</g>
	<g
   id="LINE_4815_"
   style="stroke:#ff0000;stroke-opacity:1">
		<line
   class="st0"
   x1="354.29999"
   y1="609.20001"
   x2="411"
   y2="609.20001"
   id="line130"
   style="stroke:#ff0000;stroke-opacity:1" />
	</g>
	<g
   id="LINE_4814_"
   style="stroke:#ff0000;stroke-opacity:1">
		<line
   class="st0"
   x1="148.8"
   y1="1105.5"
   x2="262.20001"
   y2="1105.5"
   id="line133"
   style="stroke:#ff0000;stroke-opacity:1" />
	</g>
	<g
   id="LINE_4813_"
   style="stroke:#ff0000;stroke-opacity:1">
		<line
   class="st0"
   x1="453.5"
   y1="70.900002"
   x2="453.5"
   y2="127.6"
   id="line136"
   style="stroke:#ff0000;stroke-opacity:1" />
	</g>
	<g
   id="LINE_4812_"
   style="stroke:#ff0000;stroke-opacity:1">
		<line
   class="st0"
   x1="439.39999"
   y1="694.5"
   x2="453.5"
   y2="694.5"
   id="line139"
   style="stroke:#ff0000;stroke-opacity:1" />
	</g>
	<g
   id="LINE_4811_"
   style="stroke:#ff0000;stroke-opacity:1">
		<line
   class="st0"
   x1="439.39999"
   y1="751.20001"
   x2="453.5"
   y2="751.20001"
   id="line142"
   style="stroke:#ff0000;stroke-opacity:1" />
	</g>
	<g
   id="LINE_4810_"
   style="stroke:#ff0000;stroke-opacity:1">
		<line
   class="st0"
   x1="439.39999"
   y1="978"
   x2="453.5"
   y2="978"
   id="line145"
   style="stroke:#ff0000;stroke-opacity:1" />
	</g>
	<g
   id="LINE_4809_"
   style="stroke:#ff0000;stroke-opacity:1">
		<line
   class="st0"
   x1="439.39999"
   y1="240.89999"
   x2="453.5"
   y2="240.89999"
   id="line148"
   style="stroke:#ff0000;stroke-opacity:1" />
	</g>
	<g
   id="LINE_4808_"
   style="stroke:#ff0000;stroke-opacity:1">
		<line
   class="st0"
   x1="453.5"
   y1="637.79999"
   x2="453.5"
   y2="694.5"
   id="line151"
   style="stroke:#ff0000;stroke-opacity:1" />
	</g>
	<g
   id="LINE_4807_"
   style="stroke:#ff0000;stroke-opacity:1">
		<line
   class="st0"
   x1="453.5"
   y1="864.59998"
   x2="453.5"
   y2="921.29999"
   id="line154"
   style="stroke:#ff0000;stroke-opacity:1" />
	</g>
	<g
   id="LINE_4806_"
   style="stroke:#ff0000;stroke-opacity:1">
		<line
   class="st0"
   x1="439.39999"
   y1="70.900002"
   x2="453.5"
   y2="70.900002"
   id="line157"
   style="stroke:#ff0000;stroke-opacity:1" />
	</g>
	<g
   id="LINE_4805_"
   style="stroke:#ff0000;stroke-opacity:1">
		<line
   class="st0"
   x1="453.5"
   y1="297.60001"
   x2="453.5"
   y2="354.29999"
   id="line160"
   style="stroke:#ff0000;stroke-opacity:1" />
	</g>
	<g
   id="LINE_4804_"
   style="stroke:#ff0000;stroke-opacity:1">
		<line
   class="st0"
   x1="411"
   y1="609.20001"
   x2="411"
   y2="595"
   id="line163"
   style="stroke:#ff0000;stroke-opacity:1" />
	</g>
	<g
   id="LINE_4803_"
   style="stroke:#ff0000;stroke-opacity:1">
		<line
   class="st0"
   x1="240.89999"
   y1="595"
   x2="240.89999"
   y2="609.20001"
   id="line166"
   style="stroke:#ff0000;stroke-opacity:1" />
	</g>
	<g
   id="LINE_4802_"
   style="stroke:#ff0000;stroke-opacity:1">
		<line
   class="st0"
   x1="240.89999"
   y1="305.89999"
   x2="240.89999"
   y2="320.10001"
   id="line169"
   style="stroke:#ff0000;stroke-opacity:1" />
	</g>
	<g
   id="LINE_4801_"
   style="stroke:#ff0000;stroke-opacity:1">
		<line
   class="st0"
   x1="439.39999"
   y1="581.09998"
   x2="453.5"
   y2="581.09998"
   id="line172"
   style="stroke:#ff0000;stroke-opacity:1" />
	</g>
	<g
   id="LINE_4800_"
   style="stroke:#ff0000;stroke-opacity:1">
		<line
   class="st0"
   x1="297.60001"
   y1="595"
   x2="240.89999"
   y2="595"
   id="line175"
   style="stroke:#ff0000;stroke-opacity:1" />
	</g>
	<g
   id="LINE_4799_"
   style="stroke:#ff0000;stroke-opacity:1">
		<line
   class="st0"
   x1="92.099998"
   y1="1091.3"
   x2="148.8"
   y2="1091.3"
   id="line178"
   style="stroke:#ff0000;stroke-opacity:1" />
	</g>
	<g
   id="LINE_4798_"
   style="stroke:#ff0000;stroke-opacity:1">
		<line
   class="st0"
   x1="453.5"
   y1="184.3"
   x2="453.5"
   y2="240.89999"
   id="line181"
   style="stroke:#ff0000;stroke-opacity:1" />
	</g>
	<g
   id="LINE_4797_"
   style="stroke:#ff0000;stroke-opacity:1">
		<line
   class="st0"
   x1="14.2"
   y1="354.29999"
   x2="14.2"
   y2="411"
   id="line184"
   style="stroke:#ff0000;stroke-opacity:1" />
	</g>
	<g
   id="LINE_4796_"
   style="stroke:#ff0000;stroke-opacity:1">
		<line
   class="st0"
   x1="439.39999"
   y1="637.79999"
   x2="453.5"
   y2="637.79999"
   id="line187"
   style="stroke:#ff0000;stroke-opacity:1" />
	</g>
	<g
   id="LINE_4795_"
   style="stroke:#ff0000;stroke-opacity:1">
		<line
   class="st0"
   x1="439.39999"
   y1="184.3"
   x2="453.5"
   y2="184.3"
   id="line190"
   style="stroke:#ff0000;stroke-opacity:1" />
	</g>
	<g
   id="LINE_4794_"
   style="stroke:#ff0000;stroke-opacity:1">
		<line
   class="st0"
   x1="354.29999"
   y1="226.5"
   x2="354.29999"
   y2="240.7"
   id="line193"
   style="stroke:#ff0000;stroke-opacity:1" />
	</g>
	<g
   id="LINE_4793_"
   style="stroke:#ff0000;stroke-opacity:1">
		<line
   class="st0"
   x1="411"
   y1="320.10001"
   x2="411"
   y2="305.89999"
   id="line196"
   style="stroke:#ff0000;stroke-opacity:1" />
	</g>
	<g
   id="LINE_4792_"
   style="stroke:#ff0000;stroke-opacity:1">
		<line
   class="st0"
   x1="453.5"
   y1="524.40002"
   x2="453.5"
   y2="581.09998"
   id="line199"
   style="stroke:#ff0000;stroke-opacity:1" />
	</g>
	<g
   id="LINE_4791_"
   style="stroke:#ff0000;stroke-opacity:1">
		<line
   class="st0"
   x1="14.2"
   y1="411"
   x2="0"
   y2="411"
   id="line202"
   style="stroke:#ff0000;stroke-opacity:1" />
	</g>
	<g
   id="LINE_4790_"
   style="stroke:#ff0000;stroke-opacity:1">
		<line
   class="st0"
   x1="439.39999"
   y1="921.29999"
   x2="453.5"
   y2="921.29999"
   id="line205"
   style="stroke:#ff0000;stroke-opacity:1" />
	</g>
	<g
   id="LINE_4789_"
   style="stroke:#ff0000;stroke-opacity:1">
		<line
   class="st0"
   x1="439.39999"
   y1="807.90002"
   x2="439.39999"
   y2="864.59998"
   id="line208"
   style="stroke:#ff0000;stroke-opacity:1" />
	</g>
	<g
   id="LINE_4788_"
   style="stroke:#ff0000;stroke-opacity:1">
		<line
   class="st0"
   x1="439.39999"
   y1="467.70001"
   x2="439.39999"
   y2="524.40002"
   id="line211"
   style="stroke:#ff0000;stroke-opacity:1" />
	</g>
	<g
   id="LINE_4787_"
   style="stroke:#ff0000;stroke-opacity:1">
		<line
   class="st0"
   x1="439.39999"
   y1="1034.6"
   x2="439.39999"
   y2="1091.3"
   id="line214"
   style="stroke:#ff0000;stroke-opacity:1" />
	</g>
	<g
   id="LINE_4786_"
   style="stroke:#ff0000;stroke-opacity:1">
		<line
   class="st0"
   x1="297.60001"
   y1="305.89999"
   x2="240.89999"
   y2="305.89999"
   id="line217"
   style="stroke:#ff0000;stroke-opacity:1" />
	</g>
	<g
   id="LINE_4785_"
   style="stroke:#ff0000;stroke-opacity:1">
		<line
   class="st0"
   x1="35.400002"
   y1="14.2"
   x2="35.400002"
   y2="0"
   id="line220"
   style="stroke:#ff0000;stroke-opacity:1" />
	</g>
	<g
   id="LINE_4784_"
   style="stroke:#ff0000;stroke-opacity:1">
		<line
   class="st0"
   x1="439.39999"
   y1="807.90002"
   x2="453.5"
   y2="807.90002"
   id="line223"
   style="stroke:#ff0000;stroke-opacity:1" />
	</g>
	<g
   id="LINE_4783_"
   style="stroke:#ff0000;stroke-opacity:1">
		<line
   class="st0"
   x1="453.5"
   y1="751.20001"
   x2="453.5"
   y2="807.90002"
   id="line226"
   style="stroke:#ff0000;stroke-opacity:1" />
	</g>
	<g
   id="LINE_4782_"
   style="stroke:#ff0000;stroke-opacity:1">
		<line
   class="st0"
   x1="14.2"
   y1="1091.3"
   x2="35.400002"
   y2="1091.3"
   id="line229"
   style="stroke:#ff0000;stroke-opacity:1" />
	</g>
	<g
   id="LINE_4781_"
   style="stroke:#ff0000;stroke-opacity:1">
		<line
   class="st0"
   x1="14.2"
   y1="14.2"
   x2="14.2"
   y2="70.900002"
   id="line232"
   style="stroke:#ff0000;stroke-opacity:1" />
	</g>
	<g
   id="LINE_4780_"
   style="stroke:#ff0000;stroke-opacity:1">
		<line
   class="st0"
   x1="14.2"
   y1="14.2"
   x2="35.400002"
   y2="14.2"
   id="line235"
   style="stroke:#ff0000;stroke-opacity:1" />
	</g>
	<g
   id="LINE_4779_"
   style="stroke:#ff0000;stroke-opacity:1">
		<line
   class="st0"
   x1="439.39999"
   y1="354.29999"
   x2="439.39999"
   y2="411"
   id="line238"
   style="stroke:#ff0000;stroke-opacity:1" />
	</g>
	<g
   id="LINE_4778_"
   style="stroke:#ff0000;stroke-opacity:1">
		<line
   class="st0"
   x1="375.60001"
   y1="14.2"
   x2="439.39999"
   y2="14.2"
   id="line241"
   style="stroke:#ff0000;stroke-opacity:1" />
	</g>
	<g
   id="LINE_4777_"
   style="stroke:#ff0000;stroke-opacity:1">
		<line
   class="st0"
   x1="14.2"
   y1="240.89999"
   x2="0"
   y2="240.89999"
   id="line244"
   style="stroke:#ff0000;stroke-opacity:1" />
	</g>
	<g
   id="LINE_4776_"
   style="stroke:#ff0000;stroke-opacity:1">
		<line
   class="st0"
   x1="0"
   y1="524.40002"
   x2="0"
   y2="581.09998"
   id="line247"
   style="stroke:#ff0000;stroke-opacity:1" />
	</g>
	<g
   id="LINE_4775_"
   style="stroke:#ff0000;stroke-opacity:1">
		<line
   class="st0"
   x1="35.400002"
   y1="1091.3"
   x2="35.400002"
   y2="1105.5"
   id="line250"
   style="stroke:#ff0000;stroke-opacity:1" />
	</g>
	<g
   id="LINE_4774_"
   style="stroke:#ff0000;stroke-opacity:1">
		<line
   class="st0"
   x1="14.2"
   y1="864.59998"
   x2="0"
   y2="864.59998"
   id="line253"
   style="stroke:#ff0000;stroke-opacity:1" />
	</g>
	<g
   id="LINE_4773_"
   style="stroke:#ff0000;stroke-opacity:1">
		<line
   class="st0"
   x1="318.89999"
   y1="1105.5"
   x2="375.60001"
   y2="1105.5"
   id="line256"
   style="stroke:#ff0000;stroke-opacity:1" />
	</g>
	<g
   id="LINE_4772_"
   style="stroke:#ff0000;stroke-opacity:1">
		<line
   class="st0"
   x1="14.2"
   y1="297.60001"
   x2="0"
   y2="297.60001"
   id="line259"
   style="stroke:#ff0000;stroke-opacity:1" />
	</g>
	<g
   id="LINE_4771_"
   style="stroke:#ff0000;stroke-opacity:1">
		<line
   class="st0"
   x1="14.2"
   y1="524.40002"
   x2="0"
   y2="524.40002"
   id="line262"
   style="stroke:#ff0000;stroke-opacity:1" />
	</g>
	<g
   id="LINE_4770_"
   style="stroke:#ff0000;stroke-opacity:1">
		<line
   class="st0"
   x1="14.2"
   y1="1034.6"
   x2="0"
   y2="1034.6"
   id="line265"
   style="stroke:#ff0000;stroke-opacity:1" />
	</g>
	<g
   id="LINE_4769_"
   style="stroke:#ff0000;stroke-opacity:1">
		<line
   class="st0"
   x1="439.39999"
   y1="581.09998"
   x2="439.39999"
   y2="637.79999"
   id="line268"
   style="stroke:#ff0000;stroke-opacity:1" />
	</g>
	<g
   id="LINE_4768_"
   style="stroke:#ff0000;stroke-opacity:1">
		<line
   class="st0"
   x1="0"
   y1="751.20001"
   x2="0"
   y2="807.90002"
   id="line271"
   style="stroke:#ff0000;stroke-opacity:1" />
	</g>
	<g
   id="LINE_4767_"
   style="stroke:#ff0000;stroke-opacity:1">
		<line
   class="st0"
   x1="14.2"
   y1="751.20001"
   x2="0"
   y2="751.20001"
   id="line274"
   style="stroke:#ff0000;stroke-opacity:1" />
	</g>
	<g
   id="LINE_4766_"
   style="stroke:#ff0000;stroke-opacity:1">
		<line
   class="st0"
   x1="262.20001"
   y1="1091.3"
   x2="262.20001"
   y2="1105.5"
   id="line277"
   style="stroke:#ff0000;stroke-opacity:1" />
	</g>
	<g
   id="LINE_4765_"
   style="stroke:#ff0000;stroke-opacity:1">
		<line
   class="st0"
   x1="35.400002"
   y1="1105.5"
   x2="92.099998"
   y2="1105.5"
   id="line280"
   style="stroke:#ff0000;stroke-opacity:1" />
	</g>
	<g
   id="LINE_4764_"
   style="stroke:#ff0000;stroke-opacity:1">
		<line
   class="st0"
   x1="439.39999"
   y1="694.5"
   x2="439.39999"
   y2="751.20001"
   id="line283"
   style="stroke:#ff0000;stroke-opacity:1" />
	</g>
	<g
   id="LINE_4763_"
   style="stroke:#ff0000;stroke-opacity:1">
		<line
   class="st0"
   x1="14.2"
   y1="70.900002"
   x2="0"
   y2="70.900002"
   id="line286"
   style="stroke:#ff0000;stroke-opacity:1" />
	</g>
	<g
   id="LINE_4762_"
   style="stroke:#ff0000;stroke-opacity:1">
		<line
   class="st0"
   x1="0"
   y1="70.900002"
   x2="0"
   y2="127.6"
   id="line289"
   style="stroke:#ff0000;stroke-opacity:1" />
	</g>
	<g
   id="LINE_4761_"
   style="stroke:#ff0000;stroke-opacity:1">
		<line
   class="st0"
   x1="14.2"
   y1="127.6"
   x2="0"
   y2="127.6"
   id="line292"
   style="stroke:#ff0000;stroke-opacity:1" />
	</g>
	<g
   id="LINE_4760_"
   style="stroke:#ff0000;stroke-opacity:1">
		<line
   class="st0"
   x1="14.2"
   y1="184.3"
   x2="0"
   y2="184.3"
   id="line295"
   style="stroke:#ff0000;stroke-opacity:1" />
	</g>
	<g
   id="LINE_4759_"
   style="stroke:#ff0000;stroke-opacity:1">
		<line
   class="st0"
   x1="0"
   y1="184.3"
   x2="0"
   y2="240.89999"
   id="line298"
   style="stroke:#ff0000;stroke-opacity:1" />
	</g>
	<g
   id="LINE_4758_"
   style="stroke:#ff0000;stroke-opacity:1">
		<line
   class="st0"
   x1="0"
   y1="297.60001"
   x2="0"
   y2="354.29999"
   id="line301"
   style="stroke:#ff0000;stroke-opacity:1" />
	</g>
	<g
   id="LINE_4757_"
   style="stroke:#ff0000;stroke-opacity:1">
		<line
   class="st0"
   x1="14.2"
   y1="354.29999"
   x2="0"
   y2="354.29999"
   id="line304"
   style="stroke:#ff0000;stroke-opacity:1" />
	</g>
	<g
   id="LINE_4756_"
   style="stroke:#ff0000;stroke-opacity:1">
		<line
   class="st0"
   x1="0"
   y1="411"
   x2="0"
   y2="467.70001"
   id="line307"
   style="stroke:#ff0000;stroke-opacity:1" />
	</g>
	<g
   id="LINE_4755_"
   style="stroke:#ff0000;stroke-opacity:1">
		<line
   class="st0"
   x1="14.2"
   y1="467.70001"
   x2="0"
   y2="467.70001"
   id="line310"
   style="stroke:#ff0000;stroke-opacity:1" />
	</g>
	<g
   id="LINE_4754_"
   style="stroke:#ff0000;stroke-opacity:1">
		<line
   class="st0"
   x1="14.2"
   y1="581.09998"
   x2="0"
   y2="581.09998"
   id="line313"
   style="stroke:#ff0000;stroke-opacity:1" />
	</g>
	<g
   id="LINE_4753_"
   style="stroke:#ff0000;stroke-opacity:1">
		<line
   class="st0"
   x1="14.2"
   y1="637.79999"
   x2="0"
   y2="637.79999"
   id="line316"
   style="stroke:#ff0000;stroke-opacity:1" />
	</g>
	<g
   id="LINE_4752_"
   style="stroke:#ff0000;stroke-opacity:1">
		<line
   class="st0"
   x1="0"
   y1="637.79999"
   x2="0"
   y2="694.5"
   id="line319"
   style="stroke:#ff0000;stroke-opacity:1" />
	</g>
	<g
   id="LINE_4751_"
   style="stroke:#ff0000;stroke-opacity:1">
		<line
   class="st0"
   x1="14.2"
   y1="694.5"
   x2="0"
   y2="694.5"
   id="line322"
   style="stroke:#ff0000;stroke-opacity:1" />
	</g>
	<g
   id="LINE_4750_"
   style="stroke:#ff0000;stroke-opacity:1">
		<line
   class="st0"
   x1="14.2"
   y1="694.5"
   x2="14.2"
   y2="751.20001"
   id="line325"
   style="stroke:#ff0000;stroke-opacity:1" />
	</g>
	<g
   id="LINE_4749_"
   style="stroke:#ff0000;stroke-opacity:1">
		<line
   class="st0"
   x1="14.2"
   y1="807.90002"
   x2="0"
   y2="807.90002"
   id="line328"
   style="stroke:#ff0000;stroke-opacity:1" />
	</g>
	<g
   id="LINE_4748_"
   style="stroke:#ff0000;stroke-opacity:1">
		<line
   class="st0"
   x1="14.2"
   y1="807.90002"
   x2="14.2"
   y2="864.59998"
   id="line331"
   style="stroke:#ff0000;stroke-opacity:1" />
	</g>
	<g
   id="LINE_4747_"
   style="stroke:#ff0000;stroke-opacity:1">
		<line
   class="st0"
   x1="0"
   y1="864.59998"
   x2="0"
   y2="921.29999"
   id="line334"
   style="stroke:#ff0000;stroke-opacity:1" />
	</g>
	<g
   id="LINE_4746_"
   style="stroke:#ff0000;stroke-opacity:1">
		<line
   class="st0"
   x1="14.2"
   y1="921.29999"
   x2="0"
   y2="921.29999"
   id="line337"
   style="stroke:#ff0000;stroke-opacity:1" />
	</g>
	<g
   id="LINE_4745_"
   style="stroke:#ff0000;stroke-opacity:1">
		<line
   class="st0"
   x1="14.2"
   y1="921.29999"
   x2="14.2"
   y2="978"
   id="line340"
   style="stroke:#ff0000;stroke-opacity:1" />
	</g>
	<g
   id="LINE_4744_"
   style="stroke:#ff0000;stroke-opacity:1">
		<line
   class="st0"
   x1="14.2"
   y1="978"
   x2="0"
   y2="978"
   id="line343"
   style="stroke:#ff0000;stroke-opacity:1" />
	</g>
	<g
   id="LINE_4743_"
   style="stroke:#ff0000;stroke-opacity:1">
		<line
   class="st0"
   x1="0"
   y1="978"
   x2="0"
   y2="1034.6"
   id="line346"
   style="stroke:#ff0000;stroke-opacity:1" />
	</g>
	<g
   id="LINE_4742_"
   style="stroke:#ff0000;stroke-opacity:1">
		<line
   class="st0"
   x1="14.2"
   y1="1034.6"
   x2="14.2"
   y2="1091.3"
   id="line349"
   style="stroke:#ff0000;stroke-opacity:1" />
	</g>
	<g
   id="LINE_4741_"
   style="stroke:#ff0000;stroke-opacity:1">
		<line
   class="st0"
   x1="92.099998"
   y1="1091.3"
   x2="92.099998"
   y2="1105.5"
   id="line352"
   style="stroke:#ff0000;stroke-opacity:1" />
	</g>
	<g
   id="LINE_4740_"
   style="stroke:#ff0000;stroke-opacity:1">
		<line
   class="st0"
   x1="148.8"
   y1="1091.3"
   x2="148.8"
   y2="1105.5"
   id="line355"
   style="stroke:#ff0000;stroke-opacity:1" />
	</g>
	<g
   id="LINE_4739_"
   style="stroke:#ff0000;stroke-opacity:1">
		<line
   class="st0"
   x1="262.20001"
   y1="1091.3"
   x2="318.89999"
   y2="1091.3"
   id="line358"
   style="stroke:#ff0000;stroke-opacity:1" />
	</g>
	<g
   id="LINE_4738_"
   style="stroke:#ff0000;stroke-opacity:1">
		<line
   class="st0"
   x1="318.89999"
   y1="1091.3"
   x2="318.89999"
   y2="1105.5"
   id="line361"
   style="stroke:#ff0000;stroke-opacity:1" />
	</g>
	<g
   id="LINE_4737_"
   style="stroke:#ff0000;stroke-opacity:1">
		<line
   class="st0"
   x1="375.60001"
   y1="1091.3"
   x2="439.39999"
   y2="1091.3"
   id="line364"
   style="stroke:#ff0000;stroke-opacity:1" />
	</g>
	<g
   id="LINE_4736_"
   style="stroke:#ff0000;stroke-opacity:1">
		<line
   class="st0"
   x1="439.39999"
   y1="921.29999"
   x2="439.39999"
   y2="978"
   id="line367"
   style="stroke:#ff0000;stroke-opacity:1" />
	</g>
	<g
   id="LINE_4735_"
   style="stroke:#ff0000;stroke-opacity:1">
		<line
   class="st0"
   x1="439.39999"
   y1="240.89999"
   x2="439.39999"
   y2="297.60001"
   id="line370"
   style="stroke:#ff0000;stroke-opacity:1" />
	</g>
	<g
   id="LINE_4734_"
   style="stroke:#ff0000;stroke-opacity:1">
		<line
   class="st0"
   x1="439.39999"
   y1="127.6"
   x2="439.39999"
   y2="184.3"
   id="line373"
   style="stroke:#ff0000;stroke-opacity:1" />
	</g>
	<g
   id="LINE_4733_"
   style="stroke:#ff0000;stroke-opacity:1">
		<line
   class="st0"
   x1="1063"
   y1="14.2"
   x2="1119.7"
   y2="14.2"
   id="line376"
   style="stroke:#ff0000;stroke-opacity:1" />
	</g>
	<g
   id="LINE_4732_"
   style="stroke:#ff0000;stroke-opacity:1">
		<line
   class="st0"
   x1="666.09998"
   y1="14.2"
   x2="722.79999"
   y2="14.2"
   id="line379"
   style="stroke:#ff0000;stroke-opacity:1" />
	</g>
	<g
   id="LINE_4731_"
   style="stroke:#ff0000;stroke-opacity:1">
		<line
   class="st0"
   x1="496.10001"
   y1="14.2"
   x2="496.10001"
   y2="0"
   id="line382"
   style="stroke:#ff0000;stroke-opacity:1" />
	</g>
	<g
   id="LINE_4730_"
   style="stroke:#ff0000;stroke-opacity:1">
		<line
   class="st0"
   x1="779.5"
   y1="1091.3"
   x2="779.5"
   y2="1105.5"
   id="line385"
   style="stroke:#ff0000;stroke-opacity:1" />
	</g>
	<g
   id="LINE_4729_"
   style="stroke:#ff0000;stroke-opacity:1">
		<line
   class="st0"
   x1="637.79999"
   y1="879"
   x2="581.09998"
   y2="879"
   id="line388"
   style="stroke:#ff0000;stroke-opacity:1" />
	</g>
	<g
   id="LINE_4728_"
   style="stroke:#ff0000;stroke-opacity:1">
		<line
   class="st0"
   x1="807.90002"
   y1="785.40002"
   x2="864.59998"
   y2="785.40002"
   id="line391"
   style="stroke:#ff0000;stroke-opacity:1" />
	</g>
	<g
   id="LINE_4727_"
   style="stroke:#ff0000;stroke-opacity:1">
		<line
   class="st0"
   x1="722.79999"
   y1="0"
   x2="779.5"
   y2="0"
   id="line394"
   style="stroke:#ff0000;stroke-opacity:1" />
	</g>
	<g
   id="LINE_4726_"
   style="stroke:#ff0000;stroke-opacity:1">
		<line
   class="st0"
   x1="779.5"
   y1="14.2"
   x2="892.90002"
   y2="14.2"
   id="line397"
   style="stroke:#ff0000;stroke-opacity:1" />
	</g>
	<g
   id="LINE_4725_"
   style="stroke:#ff0000;stroke-opacity:1">
		<line
   class="st0"
   x1="666.09998"
   y1="1105.5"
   x2="609.40002"
   y2="1105.5"
   id="line400"
   style="stroke:#ff0000;stroke-opacity:1" />
	</g>
	<g
   id="LINE_4724_"
   style="stroke:#ff0000;stroke-opacity:1">
		<line
   class="st0"
   x1="864.59998"
   y1="496.29999"
   x2="864.59998"
   y2="510.5"
   id="line403"
   style="stroke:#ff0000;stroke-opacity:1" />
	</g>
	<g
   id="LINE_4723_"
   style="stroke:#ff0000;stroke-opacity:1">
		<line
   class="st0"
   x1="1119.7"
   y1="0"
   x2="1176.4"
   y2="0"
   id="line406"
   style="stroke:#ff0000;stroke-opacity:1" />
	</g>
	<g
   id="LINE_4722_"
   style="stroke:#ff0000;stroke-opacity:1">
		<line
   class="st0"
   x1="779.5"
   y1="1105.5"
   x2="722.79999"
   y2="1105.5"
   id="line409"
   style="stroke:#ff0000;stroke-opacity:1" />
	</g>
	<g
   id="LINE_4721_"
   style="stroke:#ff0000;stroke-opacity:1">
		<line
   class="st0"
   x1="609.40002"
   y1="14.2"
   x2="609.40002"
   y2="0"
   id="line412"
   style="stroke:#ff0000;stroke-opacity:1" />
	</g>
	<g
   id="LINE_4720_"
   style="stroke:#ff0000;stroke-opacity:1">
		<line
   class="st0"
   x1="581.09998"
   y1="864.79999"
   x2="637.79999"
   y2="864.79999"
   id="line415"
   style="stroke:#ff0000;stroke-opacity:1" />
	</g>
	<g
   id="LINE_4719_"
   style="stroke:#ff0000;stroke-opacity:1">
		<line
   class="st0"
   x1="552.79999"
   y1="1091.3"
   x2="552.79999"
   y2="1105.5"
   id="line418"
   style="stroke:#ff0000;stroke-opacity:1" />
	</g>
	<g
   id="LINE_4718_"
   style="stroke:#ff0000;stroke-opacity:1">
		<line
   class="st0"
   x1="949.59998"
   y1="14.2"
   x2="1006.3"
   y2="14.2"
   id="line421"
   style="stroke:#ff0000;stroke-opacity:1" />
	</g>
	<g
   id="LINE_4717_"
   style="stroke:#ff0000;stroke-opacity:1">
		<line
   class="st0"
   x1="722.79999"
   y1="1091.3"
   x2="666.09998"
   y2="1091.3"
   id="line424"
   style="stroke:#ff0000;stroke-opacity:1" />
	</g>
	<g
   id="LINE_4716_"
   style="stroke:#ff0000;stroke-opacity:1">
		<line
   class="st0"
   x1="496.10001"
   y1="0"
   x2="552.79999"
   y2="0"
   id="line427"
   style="stroke:#ff0000;stroke-opacity:1" />
	</g>
	<g
   id="LINE_4715_"
   style="stroke:#ff0000;stroke-opacity:1">
		<line
   class="st0"
   x1="1119.7"
   y1="14.2"
   x2="1119.7"
   y2="0"
   id="line430"
   style="stroke:#ff0000;stroke-opacity:1" />
	</g>
	<g
   id="LINE_4714_"
   style="stroke:#ff0000;stroke-opacity:1">
		<line
   class="st0"
   x1="552.79999"
   y1="14.2"
   x2="552.79999"
   y2="0"
   id="line433"
   style="stroke:#ff0000;stroke-opacity:1" />
	</g>
	<g
   id="LINE_4713_"
   style="stroke:#ff0000;stroke-opacity:1">
		<line
   class="st0"
   x1="552.79999"
   y1="1105.5"
   x2="496.10001"
   y2="1105.5"
   id="line436"
   style="stroke:#ff0000;stroke-opacity:1" />
	</g>
	<g
   id="LINE_4712_"
   style="stroke:#ff0000;stroke-opacity:1">
		<line
   class="st0"
   x1="722.79999"
   y1="1091.3"
   x2="722.79999"
   y2="1105.5"
   id="line439"
   style="stroke:#ff0000;stroke-opacity:1" />
	</g>
	<g
   id="LINE_4711_"
   style="stroke:#ff0000;stroke-opacity:1">
		<line
   class="st0"
   x1="807.90002"
   y1="799.59998"
   x2="807.90002"
   y2="785.40002"
   id="line442"
   style="stroke:#ff0000;stroke-opacity:1" />
	</g>
	<g
   id="LINE_4710_"
   style="stroke:#ff0000;stroke-opacity:1">
		<line
   class="st0"
   x1="892.90002"
   y1="14.2"
   x2="892.90002"
   y2="0"
   id="line445"
   style="stroke:#ff0000;stroke-opacity:1" />
	</g>
	<g
   id="LINE_4709_"
   style="stroke:#ff0000;stroke-opacity:1">
		<line
   class="st0"
   x1="864.59998"
   y1="785.40002"
   x2="864.59998"
   y2="799.59998"
   id="line448"
   style="stroke:#ff0000;stroke-opacity:1" />
	</g>
	<g
   id="LINE_4708_"
   style="stroke:#ff0000;stroke-opacity:1">
		<line
   class="st0"
   x1="1091.3"
   y1="496.29999"
   x2="1034.6"
   y2="496.29999"
   id="line451"
   style="stroke:#ff0000;stroke-opacity:1" />
	</g>
	<g
   id="LINE_4707_"
   style="stroke:#ff0000;stroke-opacity:1">
		<line
   class="st0"
   x1="666.09998"
   y1="14.2"
   x2="666.09998"
   y2="0"
   id="line454"
   style="stroke:#ff0000;stroke-opacity:1" />
	</g>
	<g
   id="LINE_4706_"
   style="stroke:#ff0000;stroke-opacity:1">
		<line
   class="st0"
   x1="1034.6"
   y1="879"
   x2="1091.3"
   y2="879"
   id="line457"
   style="stroke:#ff0000;stroke-opacity:1" />
	</g>
	<g
   id="LINE_4705_"
   style="stroke:#ff0000;stroke-opacity:1">
		<line
   class="st0"
   x1="496.10001"
   y1="1091.3"
   x2="496.10001"
   y2="1105.5"
   id="line460"
   style="stroke:#ff0000;stroke-opacity:1" />
	</g>
	<g
   id="LINE_4704_"
   style="stroke:#ff0000;stroke-opacity:1">
		<line
   class="st0"
   x1="609.40002"
   y1="1091.3"
   x2="609.40002"
   y2="1105.5"
   id="line463"
   style="stroke:#ff0000;stroke-opacity:1" />
	</g>
	<g
   id="LINE_4703_"
   style="stroke:#ff0000;stroke-opacity:1">
		<line
   class="st0"
   x1="807.90002"
   y1="864.79999"
   x2="864.59998"
   y2="864.79999"
   id="line466"
   style="stroke:#ff0000;stroke-opacity:1" />
	</g>
	<g
   id="LINE_4702_"
   style="stroke:#ff0000;stroke-opacity:1">
		<line
   class="st0"
   x1="496.10001"
   y1="1091.3"
   x2="439.39999"
   y2="1091.3"
   id="line469"
   style="stroke:#ff0000;stroke-opacity:1" />
	</g>
	<g
   id="LINE_4701_"
   style="stroke:#ff0000;stroke-opacity:1">
		<line
   class="st0"
   x1="1034.6"
   y1="510.5"
   x2="1091.3"
   y2="510.5"
   id="line472"
   style="stroke:#ff0000;stroke-opacity:1" />
	</g>
	<g
   id="LINE_4700_"
   style="stroke:#ff0000;stroke-opacity:1">
		<line
   class="st0"
   x1="552.79999"
   y1="14.2"
   x2="609.40002"
   y2="14.2"
   id="line475"
   style="stroke:#ff0000;stroke-opacity:1" />
	</g>
	<g
   id="LINE_4699_"
   style="stroke:#ff0000;stroke-opacity:1">
		<line
   class="st0"
   x1="1063"
   y1="14.2"
   x2="1063"
   y2="0"
   id="line478"
   style="stroke:#ff0000;stroke-opacity:1" />
	</g>
	<g
   id="LINE_4698_"
   style="stroke:#ff0000;stroke-opacity:1">
		<line
   class="st0"
   x1="439.39999"
   y1="14.2"
   x2="496.10001"
   y2="14.2"
   id="line481"
   style="stroke:#ff0000;stroke-opacity:1" />
	</g>
	<g
   id="LINE_4697_"
   style="stroke:#ff0000;stroke-opacity:1">
		<line
   class="st0"
   x1="666.09998"
   y1="1091.3"
   x2="666.09998"
   y2="1105.5"
   id="line484"
   style="stroke:#ff0000;stroke-opacity:1" />
	</g>
	<g
   id="LINE_4696_"
   style="stroke:#ff0000;stroke-opacity:1">
		<line
   class="st0"
   x1="949.59998"
   y1="14.2"
   x2="949.59998"
   y2="0"
   id="line487"
   style="stroke:#ff0000;stroke-opacity:1" />
	</g>
	<g
   id="LINE_4695_"
   style="stroke:#ff0000;stroke-opacity:1">
		<line
   class="st0"
   x1="609.40002"
   y1="1091.3"
   x2="552.79999"
   y2="1091.3"
   id="line490"
   style="stroke:#ff0000;stroke-opacity:1" />
	</g>
	<g
   id="LINE_4694_"
   style="stroke:#ff0000;stroke-opacity:1">
		<line
   class="st0"
   x1="1218.9"
   y1="581.09998"
   x2="1233.1"
   y2="581.09998"
   id="line493"
   style="stroke:#ff0000;stroke-opacity:1" />
	</g>
	<g
   id="LINE_4693_"
   style="stroke:#ff0000;stroke-opacity:1">
		<line
   class="st0"
   x1="1233.1"
   y1="354.29999"
   x2="1233.1"
   y2="411"
   id="line496"
   style="stroke:#ff0000;stroke-opacity:1" />
	</g>
	<g
   id="LINE_4692_"
   style="stroke:#ff0000;stroke-opacity:1">
		<line
   class="st0"
   x1="1063"
   y1="1105.5"
   x2="1006.3"
   y2="1105.5"
   id="line499"
   style="stroke:#ff0000;stroke-opacity:1" />
	</g>
	<g
   id="LINE_4691_"
   style="stroke:#ff0000;stroke-opacity:1">
		<line
   class="st0"
   x1="779.5"
   y1="14.2"
   x2="779.5"
   y2="0"
   id="line502"
   style="stroke:#ff0000;stroke-opacity:1" />
	</g>
	<g
   id="LINE_4690_"
   style="stroke:#ff0000;stroke-opacity:1">
		<line
   class="st0"
   x1="1233.1"
   y1="240.89999"
   x2="1233.1"
   y2="297.60001"
   id="line505"
   style="stroke:#ff0000;stroke-opacity:1" />
	</g>
	<g
   id="LINE_4689_"
   style="stroke:#ff0000;stroke-opacity:1">
		<line
   class="st0"
   x1="1233.1"
   y1="14.2"
   x2="1233.1"
   y2="70.900002"
   id="line508"
   style="stroke:#ff0000;stroke-opacity:1" />
	</g>
	<g
   id="LINE_4688_"
   style="stroke:#ff0000;stroke-opacity:1">
		<line
   class="st0"
   x1="1006.3"
   y1="1091.3"
   x2="949.59998"
   y2="1091.3"
   id="line511"
   style="stroke:#ff0000;stroke-opacity:1" />
	</g>
	<g
   id="LINE_4687_"
   style="stroke:#ff0000;stroke-opacity:1">
		<line
   class="st0"
   x1="1218.9"
   y1="694.5"
   x2="1233.1"
   y2="694.5"
   id="line514"
   style="stroke:#ff0000;stroke-opacity:1" />
	</g>
	<g
   id="LINE_4686_"
   style="stroke:#ff0000;stroke-opacity:1">
		<line
   class="st0"
   x1="892.90002"
   y1="0"
   x2="949.59998"
   y2="0"
   id="line517"
   style="stroke:#ff0000;stroke-opacity:1" />
	</g>
	<g
   id="LINE_4685_"
   style="stroke:#ff0000;stroke-opacity:1">
		<line
   class="st0"
   x1="637.79999"
   y1="510.5"
   x2="581.09998"
   y2="510.5"
   id="line520"
   style="stroke:#ff0000;stroke-opacity:1" />
	</g>
	<g
   id="LINE_4684_"
   style="stroke:#ff0000;stroke-opacity:1">
		<line
   class="st0"
   x1="1233.1"
   y1="1091.3"
   x2="1176.4"
   y2="1091.3"
   id="line523"
   style="stroke:#ff0000;stroke-opacity:1" />
	</g>
	<g
   id="LINE_4683_"
   style="stroke:#ff0000;stroke-opacity:1">
		<line
   class="st0"
   x1="1218.9"
   y1="184.3"
   x2="1218.9"
   y2="240.89999"
   id="line526"
   style="stroke:#ff0000;stroke-opacity:1" />
	</g>
	<g
   id="LINE_4682_"
   style="stroke:#ff0000;stroke-opacity:1">
		<line
   class="st0"
   x1="1218.9"
   y1="921.29999"
   x2="1233.1"
   y2="921.29999"
   id="line529"
   style="stroke:#ff0000;stroke-opacity:1" />
	</g>
	<g
   id="LINE_4681_"
   style="stroke:#ff0000;stroke-opacity:1">
		<line
   class="st0"
   x1="1218.9"
   y1="70.900002"
   x2="1218.9"
   y2="127.6"
   id="line532"
   style="stroke:#ff0000;stroke-opacity:1" />
	</g>
	<g
   id="LINE_4680_"
   style="stroke:#ff0000;stroke-opacity:1">
		<line
   class="st0"
   x1="1233.1"
   y1="127.6"
   x2="1233.1"
   y2="184.3"
   id="line535"
   style="stroke:#ff0000;stroke-opacity:1" />
	</g>
	<g
   id="LINE_4679_"
   style="stroke:#ff0000;stroke-opacity:1">
		<line
   class="st0"
   x1="581.09998"
   y1="879"
   x2="581.09998"
   y2="864.79999"
   id="line538"
   style="stroke:#ff0000;stroke-opacity:1" />
	</g>
	<g
   id="LINE_4678_"
   style="stroke:#ff0000;stroke-opacity:1">
		<line
   class="st0"
   x1="807.90002"
   y1="496.29999"
   x2="864.59998"
   y2="496.29999"
   id="line541"
   style="stroke:#ff0000;stroke-opacity:1" />
	</g>
	<g
   id="LINE_4677_"
   style="stroke:#ff0000;stroke-opacity:1">
		<line
   class="st0"
   x1="1233.1"
   y1="411"
   x2="1218.9"
   y2="411"
   id="line544"
   style="stroke:#ff0000;stroke-opacity:1" />
	</g>
	<g
   id="LINE_4676_"
   style="stroke:#ff0000;stroke-opacity:1">
		<line
   class="st0"
   x1="807.90002"
   y1="510.5"
   x2="807.90002"
   y2="496.29999"
   id="line547"
   style="stroke:#ff0000;stroke-opacity:1" />
	</g>
	<g
   id="LINE_4675_"
   style="stroke:#ff0000;stroke-opacity:1">
		<line
   class="st0"
   x1="864.59998"
   y1="864.79999"
   x2="864.59998"
   y2="879"
   id="line550"
   style="stroke:#ff0000;stroke-opacity:1" />
	</g>
	<g
   id="LINE_4674_"
   style="stroke:#ff0000;stroke-opacity:1">
		<line
   class="st0"
   x1="864.59998"
   y1="879"
   x2="807.90002"
   y2="879"
   id="line553"
   style="stroke:#ff0000;stroke-opacity:1" />
	</g>
	<g
   id="LINE_4673_"
   style="stroke:#ff0000;stroke-opacity:1">
		<line
   class="st0"
   x1="1218.9"
   y1="354.29999"
   x2="1233.1"
   y2="354.29999"
   id="line556"
   style="stroke:#ff0000;stroke-opacity:1" />
	</g>
	<g
   id="LINE_4672_"
   style="stroke:#ff0000;stroke-opacity:1">
		<line
   class="st0"
   x1="609.40002"
   y1="0"
   x2="666.09998"
   y2="0"
   id="line559"
   style="stroke:#ff0000;stroke-opacity:1" />
	</g>
	<g
   id="LINE_4671_"
   style="stroke:#ff0000;stroke-opacity:1">
		<line
   class="st0"
   x1="1176.4"
   y1="1091.3"
   x2="1176.4"
   y2="1105.5"
   id="line562"
   style="stroke:#ff0000;stroke-opacity:1" />
	</g>
	<g
   id="LINE_4670_"
   style="stroke:#ff0000;stroke-opacity:1">
		<line
   class="st0"
   x1="949.59998"
   y1="1091.3"
   x2="949.59998"
   y2="1105.5"
   id="line565"
   style="stroke:#ff0000;stroke-opacity:1" />
	</g>
	<g
   id="LINE_4669_"
   style="stroke:#ff0000;stroke-opacity:1">
		<line
   class="st0"
   x1="1006.3"
   y1="0"
   x2="1063"
   y2="0"
   id="line568"
   style="stroke:#ff0000;stroke-opacity:1" />
	</g>
	<g
   id="LINE_4668_"
   style="stroke:#ff0000;stroke-opacity:1">
		<line
   class="st0"
   x1="1176.4"
   y1="14.2"
   x2="1233.1"
   y2="14.2"
   id="line571"
   style="stroke:#ff0000;stroke-opacity:1" />
	</g>
	<g
   id="LINE_4667_"
   style="stroke:#ff0000;stroke-opacity:1">
		<line
   class="st0"
   x1="892.90002"
   y1="1091.3"
   x2="892.90002"
   y2="1105.5"
   id="line574"
   style="stroke:#ff0000;stroke-opacity:1" />
	</g>
	<g
   id="LINE_4666_"
   style="stroke:#ff0000;stroke-opacity:1">
		<line
   class="st0"
   x1="1233.1"
   y1="978"
   x2="1218.9"
   y2="978"
   id="line577"
   style="stroke:#ff0000;stroke-opacity:1" />
	</g>
	<g
   id="LINE_4665_"
   style="stroke:#ff0000;stroke-opacity:1">
		<line
   class="st0"
   x1="637.79999"
   y1="864.79999"
   x2="637.79999"
   y2="879"
   id="line580"
   style="stroke:#ff0000;stroke-opacity:1" />
	</g>
	<g
   id="LINE_4664_"
   style="stroke:#ff0000;stroke-opacity:1">
		<line
   class="st0"
   x1="637.79999"
   y1="799.59998"
   x2="581.09998"
   y2="799.59998"
   id="line583"
   style="stroke:#ff0000;stroke-opacity:1" />
	</g>
	<g
   id="LINE_4663_"
   style="stroke:#ff0000;stroke-opacity:1">
		<line
   class="st0"
   x1="1034.6"
   y1="496.29999"
   x2="1034.6"
   y2="510.5"
   id="line586"
   style="stroke:#ff0000;stroke-opacity:1" />
	</g>
	<g
   id="LINE_4662_"
   style="stroke:#ff0000;stroke-opacity:1">
		<line
   class="st0"
   x1="1218.9"
   y1="807.90002"
   x2="1233.1"
   y2="807.90002"
   id="line589"
   style="stroke:#ff0000;stroke-opacity:1" />
	</g>
	<g
   id="LINE_4661_"
   style="stroke:#ff0000;stroke-opacity:1">
		<line
   class="st0"
   x1="1233.1"
   y1="694.5"
   x2="1233.1"
   y2="751.20001"
   id="line592"
   style="stroke:#ff0000;stroke-opacity:1" />
	</g>
	<g
   id="LINE_4660_"
   style="stroke:#ff0000;stroke-opacity:1">
		<line
   class="st0"
   x1="892.90002"
   y1="1091.3"
   x2="779.5"
   y2="1091.3"
   id="line595"
   style="stroke:#ff0000;stroke-opacity:1" />
	</g>
	<g
   id="LINE_4659_"
   style="stroke:#ff0000;stroke-opacity:1">
		<line
   class="st0"
   x1="1218.9"
   y1="1034.6"
   x2="1233.1"
   y2="1034.6"
   id="line598"
   style="stroke:#ff0000;stroke-opacity:1" />
	</g>
	<g
   id="LINE_4658_"
   style="stroke:#ff0000;stroke-opacity:1">
		<line
   class="st0"
   x1="637.79999"
   y1="785.40002"
   x2="637.79999"
   y2="799.59998"
   id="line601"
   style="stroke:#ff0000;stroke-opacity:1" />
	</g>
	<g
   id="LINE_4657_"
   style="stroke:#ff0000;stroke-opacity:1">
		<line
   class="st0"
   x1="1034.6"
   y1="785.40002"
   x2="1034.6"
   y2="799.59998"
   id="line604"
   style="stroke:#ff0000;stroke-opacity:1" />
	</g>
	<g
   id="LINE_4656_"
   style="stroke:#ff0000;stroke-opacity:1">
		<line
   class="st0"
   x1="1233.1"
   y1="297.60001"
   x2="1218.9"
   y2="297.60001"
   id="line607"
   style="stroke:#ff0000;stroke-opacity:1" />
	</g>
	<g
   id="LINE_4655_"
   style="stroke:#ff0000;stroke-opacity:1">
		<line
   class="st0"
   x1="1091.3"
   y1="799.59998"
   x2="1091.3"
   y2="785.40002"
   id="line610"
   style="stroke:#ff0000;stroke-opacity:1" />
	</g>
	<g
   id="LINE_4654_"
   style="stroke:#ff0000;stroke-opacity:1">
		<line
   class="st0"
   x1="1233.1"
   y1="184.3"
   x2="1218.9"
   y2="184.3"
   id="line613"
   style="stroke:#ff0000;stroke-opacity:1" />
	</g>
	<g
   id="LINE_4653_"
   style="stroke:#ff0000;stroke-opacity:1">
		<line
   class="st0"
   x1="1233.1"
   y1="1034.6"
   x2="1233.1"
   y2="1091.3"
   id="line616"
   style="stroke:#ff0000;stroke-opacity:1" />
	</g>
	<g
   id="LINE_4652_"
   style="stroke:#ff0000;stroke-opacity:1">
		<line
   class="st0"
   x1="1218.9"
   y1="637.79999"
   x2="1218.9"
   y2="694.5"
   id="line619"
   style="stroke:#ff0000;stroke-opacity:1" />
	</g>
	<g
   id="LINE_4651_"
   style="stroke:#ff0000;stroke-opacity:1">
		<line
   class="st0"
   x1="1233.1"
   y1="524.40002"
   x2="1218.9"
   y2="524.40002"
   id="line622"
   style="stroke:#ff0000;stroke-opacity:1" />
	</g>
	<g
   id="LINE_4650_"
   style="stroke:#ff0000;stroke-opacity:1">
		<line
   class="st0"
   x1="1233.1"
   y1="807.90002"
   x2="1233.1"
   y2="864.59998"
   id="line625"
   style="stroke:#ff0000;stroke-opacity:1" />
	</g>
	<g
   id="LINE_4649_"
   style="stroke:#ff0000;stroke-opacity:1">
		<line
   class="st0"
   x1="807.90002"
   y1="879"
   x2="807.90002"
   y2="864.79999"
   id="line628"
   style="stroke:#ff0000;stroke-opacity:1" />
	</g>
	<g
   id="LINE_4648_"
   style="stroke:#ff0000;stroke-opacity:1">
		<line
   class="st0"
   x1="1091.3"
   y1="879"
   x2="1091.3"
   y2="864.79999"
   id="line631"
   style="stroke:#ff0000;stroke-opacity:1" />
	</g>
	<g
   id="LINE_4647_"
   style="stroke:#ff0000;stroke-opacity:1">
		<line
   class="st0"
   x1="581.09998"
   y1="496.29999"
   x2="637.79999"
   y2="496.29999"
   id="line634"
   style="stroke:#ff0000;stroke-opacity:1" />
	</g>
	<g
   id="LINE_4646_"
   style="stroke:#ff0000;stroke-opacity:1">
		<line
   class="st0"
   x1="1218.9"
   y1="240.89999"
   x2="1233.1"
   y2="240.89999"
   id="line637"
   style="stroke:#ff0000;stroke-opacity:1" />
	</g>
	<g
   id="LINE_4645_"
   style="stroke:#ff0000;stroke-opacity:1">
		<line
   class="st0"
   x1="637.79999"
   y1="496.29999"
   x2="637.79999"
   y2="510.5"
   id="line640"
   style="stroke:#ff0000;stroke-opacity:1" />
	</g>
	<g
   id="LINE_4644_"
   style="stroke:#ff0000;stroke-opacity:1">
		<line
   class="st0"
   x1="864.59998"
   y1="799.59998"
   x2="807.90002"
   y2="799.59998"
   id="line643"
   style="stroke:#ff0000;stroke-opacity:1" />
	</g>
	<g
   id="LINE_4643_"
   style="stroke:#ff0000;stroke-opacity:1">
		<line
   class="st0"
   x1="581.09998"
   y1="799.59998"
   x2="581.09998"
   y2="785.40002"
   id="line646"
   style="stroke:#ff0000;stroke-opacity:1" />
	</g>
	<g
   id="LINE_4642_"
   style="stroke:#ff0000;stroke-opacity:1">
		<line
   class="st0"
   x1="1091.3"
   y1="510.5"
   x2="1091.3"
   y2="496.29999"
   id="line649"
   style="stroke:#ff0000;stroke-opacity:1" />
	</g>
	<g
   id="LINE_4641_"
   style="stroke:#ff0000;stroke-opacity:1">
		<line
   class="st0"
   x1="864.59998"
   y1="510.5"
   x2="807.90002"
   y2="510.5"
   id="line652"
   style="stroke:#ff0000;stroke-opacity:1" />
	</g>
	<g
   id="LINE_4640_"
   style="stroke:#ff0000;stroke-opacity:1">
		<line
   class="st0"
   x1="1233.1"
   y1="637.79999"
   x2="1218.9"
   y2="637.79999"
   id="line655"
   style="stroke:#ff0000;stroke-opacity:1" />
	</g>
	<g
   id="LINE_4639_"
   style="stroke:#ff0000;stroke-opacity:1">
		<line
   class="st0"
   x1="1006.3"
   y1="14.2"
   x2="1006.3"
   y2="0"
   id="line658"
   style="stroke:#ff0000;stroke-opacity:1" />
	</g>
	<g
   id="LINE_4638_"
   style="stroke:#ff0000;stroke-opacity:1">
		<line
   class="st0"
   x1="1176.4"
   y1="1105.5"
   x2="1119.7"
   y2="1105.5"
   id="line661"
   style="stroke:#ff0000;stroke-opacity:1" />
	</g>
	<g
   id="LINE_4637_"
   style="stroke:#ff0000;stroke-opacity:1">
		<line
   class="st0"
   x1="581.09998"
   y1="510.5"
   x2="581.09998"
   y2="496.29999"
   id="line664"
   style="stroke:#ff0000;stroke-opacity:1" />
	</g>
	<g
   id="LINE_4636_"
   style="stroke:#ff0000;stroke-opacity:1">
		<line
   class="st0"
   x1="1176.4"
   y1="14.2"
   x2="1176.4"
   y2="0"
   id="line667"
   style="stroke:#ff0000;stroke-opacity:1" />
	</g>
	<g
   id="LINE_4635_"
   style="stroke:#ff0000;stroke-opacity:1">
		<line
   class="st0"
   x1="1218.9"
   y1="751.20001"
   x2="1218.9"
   y2="807.90002"
   id="line670"
   style="stroke:#ff0000;stroke-opacity:1" />
	</g>
	<g
   id="LINE_4634_"
   style="stroke:#ff0000;stroke-opacity:1">
		<line
   class="st0"
   x1="1233.1"
   y1="70.900002"
   x2="1218.9"
   y2="70.900002"
   id="line673"
   style="stroke:#ff0000;stroke-opacity:1" />
	</g>
	<g
   id="LINE_4633_"
   style="stroke:#ff0000;stroke-opacity:1">
		<line
   class="st0"
   x1="722.79999"
   y1="14.2"
   x2="722.79999"
   y2="0"
   id="line676"
   style="stroke:#ff0000;stroke-opacity:1" />
	</g>
	<g
   id="LINE_4632_"
   style="stroke:#ff0000;stroke-opacity:1">
		<line
   class="st0"
   x1="1233.1"
   y1="467.70001"
   x2="1233.1"
   y2="524.40002"
   id="line679"
   style="stroke:#ff0000;stroke-opacity:1" />
	</g>
	<g
   id="LINE_4631_"
   style="stroke:#ff0000;stroke-opacity:1">
		<line
   class="st0"
   x1="1233.1"
   y1="864.59998"
   x2="1218.9"
   y2="864.59998"
   id="line682"
   style="stroke:#ff0000;stroke-opacity:1" />
	</g>
	<g
   id="LINE_4630_"
   style="stroke:#ff0000;stroke-opacity:1">
		<line
   class="st0"
   x1="1218.9"
   y1="467.70001"
   x2="1233.1"
   y2="467.70001"
   id="line685"
   style="stroke:#ff0000;stroke-opacity:1" />
	</g>
	<g
   id="LINE_4629_"
   style="stroke:#ff0000;stroke-opacity:1">
		<line
   class="st0"
   x1="1218.9"
   y1="127.6"
   x2="1233.1"
   y2="127.6"
   id="line688"
   style="stroke:#ff0000;stroke-opacity:1" />
	</g>
	<g
   id="LINE_4628_"
   style="stroke:#ff0000;stroke-opacity:1">
		<line
   class="st0"
   x1="581.09998"
   y1="785.40002"
   x2="637.79999"
   y2="785.40002"
   id="line691"
   style="stroke:#ff0000;stroke-opacity:1" />
	</g>
	<g
   id="LINE_4627_"
   style="stroke:#ff0000;stroke-opacity:1">
		<line
   class="st0"
   x1="1034.6"
   y1="864.79999"
   x2="1034.6"
   y2="879"
   id="line694"
   style="stroke:#ff0000;stroke-opacity:1" />
	</g>
	<g
   id="LINE_4626_"
   style="stroke:#ff0000;stroke-opacity:1">
		<line
   class="st0"
   x1="1218.9"
   y1="411"
   x2="1218.9"
   y2="467.70001"
   id="line697"
   style="stroke:#ff0000;stroke-opacity:1" />
	</g>
	<g
   id="LINE_4625_"
   style="stroke:#ff0000;stroke-opacity:1">
		<line
   class="st0"
   x1="1233.1"
   y1="921.29999"
   x2="1233.1"
   y2="978"
   id="line700"
   style="stroke:#ff0000;stroke-opacity:1" />
	</g>
	<g
   id="LINE_4624_"
   style="stroke:#ff0000;stroke-opacity:1">
		<line
   class="st0"
   x1="1034.6"
   y1="799.59998"
   x2="1091.3"
   y2="799.59998"
   id="line703"
   style="stroke:#ff0000;stroke-opacity:1" />
	</g>
	<g
   id="LINE_4623_"
   style="stroke:#ff0000;stroke-opacity:1">
		<line
   class="st0"
   x1="1218.9"
   y1="524.40002"
   x2="1218.9"
   y2="581.09998"
   id="line706"
   style="stroke:#ff0000;stroke-opacity:1" />
	</g>
	<g
   id="LINE_4622_"
   style="stroke:#ff0000;stroke-opacity:1">
		<line
   class="st0"
   x1="1119.7"
   y1="1091.3"
   x2="1063"
   y2="1091.3"
   id="line709"
   style="stroke:#ff0000;stroke-opacity:1" />
	</g>
	<g
   id="LINE_4621_"
   style="stroke:#ff0000;stroke-opacity:1">
		<line
   class="st0"
   x1="949.59998"
   y1="1105.5"
   x2="892.90002"
   y2="1105.5"
   id="line712"
   style="stroke:#ff0000;stroke-opacity:1" />
	</g>
	<g
   id="LINE_4620_"
   style="stroke:#ff0000;stroke-opacity:1">
		<line
   class="st0"
   x1="1006.3"
   y1="1091.3"
   x2="1006.3"
   y2="1105.5"
   id="line715"
   style="stroke:#ff0000;stroke-opacity:1" />
	</g>
	<g
   id="LINE_4619_"
   style="stroke:#ff0000;stroke-opacity:1">
		<line
   class="st0"
   x1="1063"
   y1="1091.3"
   x2="1063"
   y2="1105.5"
   id="line718"
   style="stroke:#ff0000;stroke-opacity:1" />
	</g>
	<g
   id="LINE_4618_"
   style="stroke:#ff0000;stroke-opacity:1">
		<line
   class="st0"
   x1="1119.7"
   y1="1091.3"
   x2="1119.7"
   y2="1105.5"
   id="line721"
   style="stroke:#ff0000;stroke-opacity:1" />
	</g>
	<g
   id="LINE_4617_"
   style="stroke:#ff0000;stroke-opacity:1">
		<line
   class="st0"
   x1="1218.9"
   y1="978"
   x2="1218.9"
   y2="1034.6"
   id="line724"
   style="stroke:#ff0000;stroke-opacity:1" />
	</g>
	<g
   id="LINE_4616_"
   style="stroke:#ff0000;stroke-opacity:1">
		<line
   class="st0"
   x1="1218.9"
   y1="864.59998"
   x2="1218.9"
   y2="921.29999"
   id="line727"
   style="stroke:#ff0000;stroke-opacity:1" />
	</g>
	<g
   id="LINE_4615_"
   style="stroke:#ff0000;stroke-opacity:1">
		<line
   class="st0"
   x1="1233.1"
   y1="751.20001"
   x2="1218.9"
   y2="751.20001"
   id="line730"
   style="stroke:#ff0000;stroke-opacity:1" />
	</g>
	<g
   id="LINE_4614_"
   style="stroke:#ff0000;stroke-opacity:1">
		<line
   class="st0"
   x1="1233.1"
   y1="581.09998"
   x2="1233.1"
   y2="637.79999"
   id="line733"
   style="stroke:#ff0000;stroke-opacity:1" />
	</g>
	<g
   id="LINE_4613_"
   style="stroke:#ff0000;stroke-opacity:1">
		<line
   class="st0"
   x1="1218.9"
   y1="297.60001"
   x2="1218.9"
   y2="354.29999"
   id="line736"
   style="stroke:#ff0000;stroke-opacity:1" />
	</g>
	<g
   id="LINE_4612_"
   style="stroke:#ff0000;stroke-opacity:1">
		<line
   class="st0"
   x1="1091.3"
   y1="864.79999"
   x2="1034.6"
   y2="864.79999"
   id="line739"
   style="stroke:#ff0000;stroke-opacity:1" />
	</g>
	<g
   id="LINE_4611_"
   style="stroke:#ff0000;stroke-opacity:1">
		<line
   class="st0"
   x1="1091.3"
   y1="785.40002"
   x2="1034.6"
   y2="785.40002"
   id="line742"
   style="stroke:#ff0000;stroke-opacity:1" />
	</g>
</g>
<g
   id="contour"
   style="stroke:#ff0000;stroke-opacity:1">
	<rect
   class="st1"
   width="1700.8"
   height="1133.9"
   id="rect746"
   x="0"
   y="0"
   style="fill:none;stroke:#ff0000;stroke-miterlimit:10;stroke-opacity:1" />
</g>
</svg>